%YAML 1.1
%TAG !u! tag:unity3d.com,2011:
--- !u!29 &1
OcclusionCullingSettings:
  m_ObjectHideFlags: 0
  serializedVersion: 2
  m_OcclusionBakeSettings:
    smallestOccluder: 5
    smallestHole: 0.25
    backfaceThreshold: 100
  m_SceneGUID: 00000000000000000000000000000000
  m_OcclusionCullingData: {fileID: 0}
--- !u!104 &2
RenderSettings:
  m_ObjectHideFlags: 0
  serializedVersion: 9
  m_Fog: 0
  m_FogColor: {r: 0.5, g: 0.5, b: 0.5, a: 1}
  m_FogMode: 3
  m_FogDensity: 0.01
  m_LinearFogStart: 0
  m_LinearFogEnd: 300
  m_AmbientSkyColor: {r: 0.212, g: 0.227, b: 0.259, a: 1}
  m_AmbientEquatorColor: {r: 0.114, g: 0.125, b: 0.133, a: 1}
  m_AmbientGroundColor: {r: 0.047, g: 0.043, b: 0.035, a: 1}
  m_AmbientIntensity: 1
  m_AmbientMode: 3
  m_SubtractiveShadowColor: {r: 0.42, g: 0.478, b: 0.627, a: 1}
  m_SkyboxMaterial: {fileID: 0}
  m_HaloStrength: 0.5
  m_FlareStrength: 1
  m_FlareFadeSpeed: 3
  m_HaloTexture: {fileID: 0}
  m_SpotCookie: {fileID: 10001, guid: 0000000000000000e000000000000000, type: 0}
  m_DefaultReflectionMode: 0
  m_DefaultReflectionResolution: 128
  m_ReflectionBounces: 1
  m_ReflectionIntensity: 1
  m_CustomReflection: {fileID: 0}
  m_Sun: {fileID: 0}
  m_IndirectSpecularColor: {r: 0, g: 0, b: 0, a: 1}
  m_UseRadianceAmbientProbe: 0
--- !u!157 &3
LightmapSettings:
  m_ObjectHideFlags: 0
  serializedVersion: 11
  m_GIWorkflowMode: 1
  m_GISettings:
    serializedVersion: 2
    m_BounceScale: 1
    m_IndirectOutputScale: 1
    m_AlbedoBoost: 1
    m_EnvironmentLightingMode: 0
    m_EnableBakedLightmaps: 0
    m_EnableRealtimeLightmaps: 0
  m_LightmapEditorSettings:
    serializedVersion: 12
    m_Resolution: 2
    m_BakeResolution: 40
    m_AtlasSize: 1024
    m_AO: 0
    m_AOMaxDistance: 1
    m_CompAOExponent: 1
    m_CompAOExponentDirect: 0
    m_ExtractAmbientOcclusion: 0
    m_Padding: 2
    m_LightmapParameters: {fileID: 0}
    m_LightmapsBakeMode: 1
    m_TextureCompression: 1
    m_FinalGather: 0
    m_FinalGatherFiltering: 1
    m_FinalGatherRayCount: 256
    m_ReflectionCompression: 2
    m_MixedBakeMode: 2
    m_BakeBackend: 1
    m_PVRSampling: 1
    m_PVRDirectSampleCount: 32
    m_PVRSampleCount: 500
    m_PVRBounces: 2
    m_PVREnvironmentSampleCount: 500
    m_PVREnvironmentReferencePointCount: 2048
    m_PVRFilteringMode: 2
    m_PVRDenoiserTypeDirect: 0
    m_PVRDenoiserTypeIndirect: 0
    m_PVRDenoiserTypeAO: 0
    m_PVRFilterTypeDirect: 0
    m_PVRFilterTypeIndirect: 0
    m_PVRFilterTypeAO: 0
    m_PVREnvironmentMIS: 0
    m_PVRCulling: 1
    m_PVRFilteringGaussRadiusDirect: 1
    m_PVRFilteringGaussRadiusIndirect: 5
    m_PVRFilteringGaussRadiusAO: 2
    m_PVRFilteringAtrousPositionSigmaDirect: 0.5
    m_PVRFilteringAtrousPositionSigmaIndirect: 2
    m_PVRFilteringAtrousPositionSigmaAO: 1
    m_ExportTrainingData: 0
    m_TrainingDataDestination: TrainingData
    m_LightProbeSampleCountMultiplier: 4
  m_LightingDataAsset: {fileID: 0}
  m_UseShadowmask: 1
--- !u!196 &4
NavMeshSettings:
  serializedVersion: 2
  m_ObjectHideFlags: 0
  m_BuildSettings:
    serializedVersion: 2
    agentTypeID: 0
    agentRadius: 0.5
    agentHeight: 2
    agentSlope: 45
    agentClimb: 0.4
    ledgeDropHeight: 0
    maxJumpAcrossDistance: 0
    minRegionArea: 2
    manualCellSize: 0
    cellSize: 0.16666667
    manualTileSize: 0
    tileSize: 256
    accuratePlacement: 0
    debug:
      m_Flags: 0
  m_NavMeshData: {fileID: 0}
--- !u!1 &1353557381
GameObject:
  m_ObjectHideFlags: 0
  m_CorrespondingSourceObject: {fileID: 0}
  m_PrefabInstance: {fileID: 0}
  m_PrefabAsset: {fileID: 0}
  serializedVersion: 6
  m_Component:
  - component: {fileID: 1353557384}
  - component: {fileID: 1353557383}
  - component: {fileID: 1353557382}
  m_Layer: 0
  m_Name: Main Camera
  m_TagString: MainCamera
  m_Icon: {fileID: 0}
  m_NavMeshLayer: 0
  m_StaticEditorFlags: 0
  m_IsActive: 1
--- !u!81 &1353557382
AudioListener:
  m_ObjectHideFlags: 0
  m_CorrespondingSourceObject: {fileID: 0}
  m_PrefabInstance: {fileID: 0}
  m_PrefabAsset: {fileID: 0}
  m_GameObject: {fileID: 1353557381}
  m_Enabled: 1
--- !u!20 &1353557383
Camera:
  m_ObjectHideFlags: 0
  m_CorrespondingSourceObject: {fileID: 0}
  m_PrefabInstance: {fileID: 0}
  m_PrefabAsset: {fileID: 0}
  m_GameObject: {fileID: 1353557381}
  m_Enabled: 1
  serializedVersion: 2
  m_ClearFlags: 1
  m_BackGroundColor: {r: 0.1, g: 0.1, b: 0.1, a: 0}
  m_projectionMatrixMode: 1
  m_GateFitMode: 2
  m_FOVAxisMode: 0
  m_SensorSize: {x: 36, y: 24}
  m_LensShift: {x: 0, y: 0}
  m_FocalLength: 50
  m_NormalizedViewPortRect:
    serializedVersion: 2
    x: 0
    y: 0
    width: 1
    height: 1
  near clip plane: 0.3
  far clip plane: 1000
  field of view: 60
  orthographic: 1
  orthographic size: 9.46
  m_Depth: -1
  m_CullingMask:
    serializedVersion: 2
    m_Bits: 4294967295
  m_RenderingPath: -1
  m_TargetTexture: {fileID: 0}
  m_TargetDisplay: 0
  m_TargetEye: 3
  m_HDR: 1
  m_AllowMSAA: 1
  m_AllowDynamicResolution: 0
  m_ForceIntoRT: 0
  m_OcclusionCulling: 1
  m_StereoConvergence: 10
  m_StereoSeparation: 0.022
--- !u!4 &1353557384
Transform:
  m_ObjectHideFlags: 0
  m_CorrespondingSourceObject: {fileID: 0}
  m_PrefabInstance: {fileID: 0}
  m_PrefabAsset: {fileID: 0}
  m_GameObject: {fileID: 1353557381}
  m_LocalRotation: {x: 0, y: 0, z: 0, w: 1}
  m_LocalPosition: {x: 0, y: 0, z: -10}
  m_LocalScale: {x: 1, y: 1, z: 1}
  m_Children: []
  m_Father: {fileID: 0}
  m_RootOrder: 0
  m_LocalEulerAnglesHint: {x: 0, y: 0, z: 0}
--- !u!1001 &3467459017006497593
PrefabInstance:
  m_ObjectHideFlags: 0
  serializedVersion: 2
  m_Modification:
    m_TransformParent: {fileID: 0}
    m_Modifications:
    - target: {fileID: 3467459015931559072, guid: a21381521992ece4a9db8e22c3fd8079,
        type: 3}
      propertyPath: m_LocalRotation.z
      value: 0.3021291
      objectReference: {fileID: 0}
    - target: {fileID: 3467459015931559072, guid: a21381521992ece4a9db8e22c3fd8079,
        type: 3}
      propertyPath: m_LocalRotation.w
      value: 0.95326704
      objectReference: {fileID: 0}
    - target: {fileID: 3467459015931559072, guid: a21381521992ece4a9db8e22c3fd8079,
        type: 3}
      propertyPath: m_LocalEulerAnglesHint.z
      value: 35.171
      objectReference: {fileID: 0}
    - target: {fileID: 3467459015964736947, guid: a21381521992ece4a9db8e22c3fd8079,
        type: 3}
      propertyPath: m_LocalRotation.z
      value: -0.81345326
      objectReference: {fileID: 0}
    - target: {fileID: 3467459015964736947, guid: a21381521992ece4a9db8e22c3fd8079,
        type: 3}
      propertyPath: m_LocalRotation.w
      value: 0.58163035
      objectReference: {fileID: 0}
    - target: {fileID: 3467459015964736947, guid: a21381521992ece4a9db8e22c3fd8079,
        type: 3}
      propertyPath: m_LocalPosition.x
      value: -0.98597074
      objectReference: {fileID: 0}
    - target: {fileID: 3467459015964736947, guid: a21381521992ece4a9db8e22c3fd8079,
        type: 3}
      propertyPath: m_LocalPosition.y
      value: -3.118624
      objectReference: {fileID: 0}
    - target: {fileID: 3467459015994465124, guid: a21381521992ece4a9db8e22c3fd8079,
        type: 3}
      propertyPath: m_LocalRotation.x
      value: -0
      objectReference: {fileID: 0}
    - target: {fileID: 3467459015994465124, guid: a21381521992ece4a9db8e22c3fd8079,
        type: 3}
      propertyPath: m_LocalRotation.y
      value: -0
      objectReference: {fileID: 0}
    - target: {fileID: 3467459015994465124, guid: a21381521992ece4a9db8e22c3fd8079,
        type: 3}
      propertyPath: m_LocalEulerAnglesHint.z
      value: 92.490005
      objectReference: {fileID: 0}
    - target: {fileID: 3467459015994465124, guid: a21381521992ece4a9db8e22c3fd8079,
        type: 3}
      propertyPath: m_LocalRotation.z
      value: 0.7223009
      objectReference: {fileID: 0}
    - target: {fileID: 3467459015994465124, guid: a21381521992ece4a9db8e22c3fd8079,
        type: 3}
      propertyPath: m_LocalRotation.w
      value: 0.6915789
      objectReference: {fileID: 0}
    - target: {fileID: 3467459015994465124, guid: a21381521992ece4a9db8e22c3fd8079,
        type: 3}
      propertyPath: m_LocalScale.x
      value: 1
      objectReference: {fileID: 0}
    - target: {fileID: 3467459015994465124, guid: a21381521992ece4a9db8e22c3fd8079,
        type: 3}
      propertyPath: m_LocalPosition.y
      value: -0.1327374
      objectReference: {fileID: 0}
    - target: {fileID: 3467459015994465124, guid: a21381521992ece4a9db8e22c3fd8079,
        type: 3}
      propertyPath: m_LocalPosition.x
      value: -0.1550724
      objectReference: {fileID: 0}
    - target: {fileID: 3467459016082033430, guid: a21381521992ece4a9db8e22c3fd8079,
        type: 3}
      propertyPath: m_LocalRotation.z
      value: 0.06401237
      objectReference: {fileID: 0}
    - target: {fileID: 3467459016082033430, guid: a21381521992ece4a9db8e22c3fd8079,
        type: 3}
      propertyPath: m_LocalRotation.w
      value: 0.9979491
      objectReference: {fileID: 0}
    - target: {fileID: 3467459016082033430, guid: a21381521992ece4a9db8e22c3fd8079,
        type: 3}
      propertyPath: m_LocalEulerAnglesHint.z
      value: 7.34
      objectReference: {fileID: 0}
    - target: {fileID: 3467459016125415616, guid: a21381521992ece4a9db8e22c3fd8079,
        type: 3}
      propertyPath: m_LocalRotation.z
      value: 0.6354508
      objectReference: {fileID: 0}
    - target: {fileID: 3467459016125415616, guid: a21381521992ece4a9db8e22c3fd8079,
        type: 3}
      propertyPath: m_LocalRotation.w
      value: 0.77214134
      objectReference: {fileID: 0}
    - target: {fileID: 3467459016125415616, guid: a21381521992ece4a9db8e22c3fd8079,
        type: 3}
      propertyPath: m_LocalEulerAnglesHint.z
      value: 78.907005
      objectReference: {fileID: 0}
    - target: {fileID: 3467459016211562597, guid: a21381521992ece4a9db8e22c3fd8079,
        type: 3}
      propertyPath: m_LocalRotation.z
      value: 0.6050497
      objectReference: {fileID: 0}
    - target: {fileID: 3467459016211562597, guid: a21381521992ece4a9db8e22c3fd8079,
        type: 3}
      propertyPath: m_LocalRotation.w
      value: 0.7961877
      objectReference: {fileID: 0}
    - target: {fileID: 3467459016211562597, guid: a21381521992ece4a9db8e22c3fd8079,
        type: 3}
      propertyPath: m_LocalPosition.x
      value: 1.0499672
      objectReference: {fileID: 0}
    - target: {fileID: 3467459016211562597, guid: a21381521992ece4a9db8e22c3fd8079,
        type: 3}
      propertyPath: m_LocalPosition.y
      value: 0.00000021885673
      objectReference: {fileID: 0}
    - target: {fileID: 3467459016498196507, guid: a21381521992ece4a9db8e22c3fd8079,
        type: 3}
      propertyPath: m_LocalRotation.z
      value: -0.34322336
      objectReference: {fileID: 0}
    - target: {fileID: 3467459016498196507, guid: a21381521992ece4a9db8e22c3fd8079,
        type: 3}
      propertyPath: m_LocalRotation.w
      value: 0.9392538
      objectReference: {fileID: 0}
    - target: {fileID: 3467459016498196507, guid: a21381521992ece4a9db8e22c3fd8079,
        type: 3}
      propertyPath: m_LocalPosition.x
      value: 0.1198292
      objectReference: {fileID: 0}
    - target: {fileID: 3467459016498196507, guid: a21381521992ece4a9db8e22c3fd8079,
        type: 3}
      propertyPath: m_LocalPosition.y
      value: -0.51457626
      objectReference: {fileID: 0}
    - target: {fileID: 3467459016505580208, guid: a21381521992ece4a9db8e22c3fd8079,
        type: 3}
      propertyPath: m_LocalPosition.x
      value: 1.247371
      objectReference: {fileID: 0}
    - target: {fileID: 3467459016505580208, guid: a21381521992ece4a9db8e22c3fd8079,
        type: 3}
      propertyPath: m_LocalPosition.y
      value: -4.205574
      objectReference: {fileID: 0}
    - target: {fileID: 3467459016506817958, guid: a21381521992ece4a9db8e22c3fd8079,
        type: 3}
      propertyPath: m_LocalRotation.z
      value: -0.17028455
      objectReference: {fileID: 0}
    - target: {fileID: 3467459016506817958, guid: a21381521992ece4a9db8e22c3fd8079,
        type: 3}
      propertyPath: m_LocalRotation.w
      value: 0.98539495
      objectReference: {fileID: 0}
    - target: {fileID: 3467459016506817958, guid: a21381521992ece4a9db8e22c3fd8079,
        type: 3}
      propertyPath: m_LocalEulerAnglesHint.z
      value: -19.609001
      objectReference: {fileID: 0}
    - target: {fileID: 3467459016609886176, guid: a21381521992ece4a9db8e22c3fd8079,
        type: 3}
      propertyPath: m_LocalPosition.x
      value: -0.3124161
      objectReference: {fileID: 0}
    - target: {fileID: 3467459016609886176, guid: a21381521992ece4a9db8e22c3fd8079,
        type: 3}
      propertyPath: m_LocalPosition.y
      value: -2.0672107
      objectReference: {fileID: 0}
    - target: {fileID: 3467459016619448886, guid: a21381521992ece4a9db8e22c3fd8079,
        type: 3}
      propertyPath: m_LocalRotation.z
      value: 0.48432225
      objectReference: {fileID: 0}
    - target: {fileID: 3467459016619448886, guid: a21381521992ece4a9db8e22c3fd8079,
        type: 3}
      propertyPath: m_LocalRotation.w
      value: 0.87488973
      objectReference: {fileID: 0}
    - target: {fileID: 3467459016633227825, guid: a21381521992ece4a9db8e22c3fd8079,
        type: 3}
      propertyPath: m_LocalRotation.z
      value: 0.10048371
      objectReference: {fileID: 0}
    - target: {fileID: 3467459016633227825, guid: a21381521992ece4a9db8e22c3fd8079,
        type: 3}
      propertyPath: m_LocalRotation.w
      value: 0.99493873
      objectReference: {fileID: 0}
    - target: {fileID: 3467459016683507107, guid: a21381521992ece4a9db8e22c3fd8079,
        type: 3}
      propertyPath: m_LocalRotation.z
      value: 0.12050197
      objectReference: {fileID: 0}
    - target: {fileID: 3467459016683507107, guid: a21381521992ece4a9db8e22c3fd8079,
        type: 3}
      propertyPath: m_LocalRotation.w
      value: 0.99271315
      objectReference: {fileID: 0}
    - target: {fileID: 3467459016683507107, guid: a21381521992ece4a9db8e22c3fd8079,
        type: 3}
      propertyPath: m_LocalEulerAnglesHint.z
      value: 13.842001
      objectReference: {fileID: 0}
    - target: {fileID: 3467459016774008559, guid: a21381521992ece4a9db8e22c3fd8079,
        type: 3}
      propertyPath: m_LocalPosition.y
      value: -0.36206186
      objectReference: {fileID: 0}
    - target: {fileID: 3467459016774008559, guid: a21381521992ece4a9db8e22c3fd8079,
        type: 3}
      propertyPath: m_LocalRotation.z
      value: 0.418622
      objectReference: {fileID: 0}
    - target: {fileID: 3467459016774008559, guid: a21381521992ece4a9db8e22c3fd8079,
        type: 3}
      propertyPath: m_LocalRotation.w
      value: 0.9081606
      objectReference: {fileID: 0}
    - target: {fileID: 3467459016774008559, guid: a21381521992ece4a9db8e22c3fd8079,
        type: 3}
      propertyPath: m_LocalEulerAnglesHint.z
      value: 49.495003
      objectReference: {fileID: 0}
    - target: {fileID: 3467459016818790952, guid: a21381521992ece4a9db8e22c3fd8079,
        type: 3}
      propertyPath: m_Name
      value: Fairy_psd
      objectReference: {fileID: 0}
    - target: {fileID: 3467459016818790956, guid: a21381521992ece4a9db8e22c3fd8079,
        type: 3}
      propertyPath: m_LocalPosition.x
      value: 0.14
      objectReference: {fileID: 0}
    - target: {fileID: 3467459016818790956, guid: a21381521992ece4a9db8e22c3fd8079,
        type: 3}
      propertyPath: m_LocalPosition.y
      value: 1.18
      objectReference: {fileID: 0}
    - target: {fileID: 3467459016818790956, guid: a21381521992ece4a9db8e22c3fd8079,
        type: 3}
      propertyPath: m_LocalPosition.z
      value: 0
      objectReference: {fileID: 0}
    - target: {fileID: 3467459016818790956, guid: a21381521992ece4a9db8e22c3fd8079,
        type: 3}
      propertyPath: m_LocalRotation.x
      value: 0
      objectReference: {fileID: 0}
    - target: {fileID: 3467459016818790956, guid: a21381521992ece4a9db8e22c3fd8079,
        type: 3}
      propertyPath: m_LocalRotation.y
      value: 0
      objectReference: {fileID: 0}
    - target: {fileID: 3467459016818790956, guid: a21381521992ece4a9db8e22c3fd8079,
        type: 3}
      propertyPath: m_LocalRotation.z
      value: 0
      objectReference: {fileID: 0}
    - target: {fileID: 3467459016818790956, guid: a21381521992ece4a9db8e22c3fd8079,
        type: 3}
      propertyPath: m_LocalRotation.w
      value: 1
      objectReference: {fileID: 0}
    - target: {fileID: 3467459016818790956, guid: a21381521992ece4a9db8e22c3fd8079,
        type: 3}
      propertyPath: m_RootOrder
      value: 1
      objectReference: {fileID: 0}
    - target: {fileID: 3467459016818790956, guid: a21381521992ece4a9db8e22c3fd8079,
        type: 3}
      propertyPath: m_LocalEulerAnglesHint.x
      value: 0
      objectReference: {fileID: 0}
    - target: {fileID: 3467459016818790956, guid: a21381521992ece4a9db8e22c3fd8079,
        type: 3}
      propertyPath: m_LocalEulerAnglesHint.y
      value: 0
      objectReference: {fileID: 0}
    - target: {fileID: 3467459016818790956, guid: a21381521992ece4a9db8e22c3fd8079,
        type: 3}
      propertyPath: m_LocalEulerAnglesHint.z
      value: 0
      objectReference: {fileID: 0}
    - target: {fileID: 3467459016823216455, guid: a21381521992ece4a9db8e22c3fd8079,
        type: 3}
      propertyPath: m_LocalRotation.z
      value: -0.80310386
      objectReference: {fileID: 0}
    - target: {fileID: 3467459016823216455, guid: a21381521992ece4a9db8e22c3fd8079,
        type: 3}
      propertyPath: m_LocalRotation.w
      value: 0.59583914
      objectReference: {fileID: 0}
    - target: {fileID: 3467459016823216455, guid: a21381521992ece4a9db8e22c3fd8079,
        type: 3}
      propertyPath: m_LocalPosition.x
      value: -1.428302
      objectReference: {fileID: 0}
    - target: {fileID: 3467459016823216455, guid: a21381521992ece4a9db8e22c3fd8079,
        type: 3}
      propertyPath: m_LocalPosition.y
      value: -0.30511826
      objectReference: {fileID: 0}
    - target: {fileID: 3467459016852695429, guid: a21381521992ece4a9db8e22c3fd8079,
        type: 3}
      propertyPath: m_LocalPosition.y
      value: -0.2070018
      objectReference: {fileID: 0}
    - target: {fileID: 3467459016852695429, guid: a21381521992ece4a9db8e22c3fd8079,
        type: 3}
      propertyPath: m_LocalRotation.x
      value: 0
      objectReference: {fileID: 0}
    - target: {fileID: 3467459016852695429, guid: a21381521992ece4a9db8e22c3fd8079,
        type: 3}
      propertyPath: m_LocalRotation.y
      value: 0
      objectReference: {fileID: 0}
    - target: {fileID: 3467459016852695429, guid: a21381521992ece4a9db8e22c3fd8079,
        type: 3}
      propertyPath: m_LocalRotation.z
      value: -0.9978046
      objectReference: {fileID: 0}
    - target: {fileID: 3467459016852695429, guid: a21381521992ece4a9db8e22c3fd8079,
        type: 3}
      propertyPath: m_LocalRotation.w
      value: 0.066227406
      objectReference: {fileID: 0}
    - target: {fileID: 3467459016852695429, guid: a21381521992ece4a9db8e22c3fd8079,
        type: 3}
      propertyPath: m_LocalEulerAnglesHint.z
      value: 0
      objectReference: {fileID: 0}
    - target: {fileID: 3467459016859128527, guid: a21381521992ece4a9db8e22c3fd8079,
        type: 3}
      propertyPath: m_LocalPosition.x
      value: -0.7612213
      objectReference: {fileID: 0}
    - target: {fileID: 3467459016859128527, guid: a21381521992ece4a9db8e22c3fd8079,
        type: 3}
      propertyPath: m_LocalPosition.y
      value: -0.14845115
      objectReference: {fileID: 0}
    - target: {fileID: 3467459016859128527, guid: a21381521992ece4a9db8e22c3fd8079,
        type: 3}
      propertyPath: m_LocalRotation.x
      value: 0
      objectReference: {fileID: 0}
    - target: {fileID: 3467459016859128527, guid: a21381521992ece4a9db8e22c3fd8079,
        type: 3}
      propertyPath: m_LocalRotation.y
      value: 0
      objectReference: {fileID: 0}
    - target: {fileID: 3467459016859128527, guid: a21381521992ece4a9db8e22c3fd8079,
        type: 3}
      propertyPath: m_LocalRotation.z
      value: 0.9503823
      objectReference: {fileID: 0}
    - target: {fileID: 3467459016859128527, guid: a21381521992ece4a9db8e22c3fd8079,
        type: 3}
      propertyPath: m_LocalRotation.w
      value: 0.31108457
      objectReference: {fileID: 0}
    - target: {fileID: 3467459016859128527, guid: a21381521992ece4a9db8e22c3fd8079,
        type: 3}
      propertyPath: m_LocalEulerAnglesHint.z
      value: 0
      objectReference: {fileID: 0}
    - target: {fileID: 3467459016862535118, guid: a21381521992ece4a9db8e22c3fd8079,
        type: 3}
      propertyPath: m_LocalRotation.w
      value: 0.7265703
      objectReference: {fileID: 0}
    - target: {fileID: 3467459016862535118, guid: a21381521992ece4a9db8e22c3fd8079,
        type: 3}
      propertyPath: m_LocalRotation.z
      value: 0.6870922
      objectReference: {fileID: 0}
    - target: {fileID: 3467459017123583749, guid: a21381521992ece4a9db8e22c3fd8079,
        type: 3}
      propertyPath: m_LocalPosition.y
      value: -0.41267085
      objectReference: {fileID: 0}
    - target: {fileID: 3467459017123583749, guid: a21381521992ece4a9db8e22c3fd8079,
        type: 3}
      propertyPath: m_LocalRotation.z
      value: 0.03179656
      objectReference: {fileID: 0}
    - target: {fileID: 3467459017123583749, guid: a21381521992ece4a9db8e22c3fd8079,
        type: 3}
      propertyPath: m_LocalRotation.w
      value: 0.99949443
      objectReference: {fileID: 0}
    - target: {fileID: 3467459017123583749, guid: a21381521992ece4a9db8e22c3fd8079,
        type: 3}
      propertyPath: m_LocalEulerAnglesHint.z
      value: 3.6440003
      objectReference: {fileID: 0}
    - target: {fileID: 3467459017162201412, guid: a21381521992ece4a9db8e22c3fd8079,
        type: 3}
      propertyPath: m_LocalRotation.z
      value: 0.34654358
      objectReference: {fileID: 0}
    - target: {fileID: 3467459017162201412, guid: a21381521992ece4a9db8e22c3fd8079,
        type: 3}
      propertyPath: m_LocalRotation.w
      value: 0.93803394
      objectReference: {fileID: 0}
    - target: {fileID: 3467459017172700233, guid: a21381521992ece4a9db8e22c3fd8079,
        type: 3}
      propertyPath: m_LocalPosition.x
      value: 2.659796
      objectReference: {fileID: 0}
    - target: {fileID: 3467459017172700233, guid: a21381521992ece4a9db8e22c3fd8079,
        type: 3}
      propertyPath: m_LocalPosition.y
      value: -1.0305018
      objectReference: {fileID: 0}
    - target: {fileID: 3467459017437978555, guid: a21381521992ece4a9db8e22c3fd8079,
        type: 3}
      propertyPath: m_LocalRotation.z
      value: 0.035547346
      objectReference: {fileID: 0}
    - target: {fileID: 3467459017437978555, guid: a21381521992ece4a9db8e22c3fd8079,
        type: 3}
      propertyPath: m_LocalRotation.w
      value: 0.999368
      objectReference: {fileID: 0}
    - target: {fileID: 3467459017577468360, guid: a21381521992ece4a9db8e22c3fd8079,
        type: 3}
      propertyPath: m_LocalPosition.x
      value: -0.6568115
      objectReference: {fileID: 0}
    - target: {fileID: 3467459017577468360, guid: a21381521992ece4a9db8e22c3fd8079,
        type: 3}
      propertyPath: m_LocalPosition.y
      value: -0.050316773
      objectReference: {fileID: 0}
    - target: {fileID: 3467459017577468360, guid: a21381521992ece4a9db8e22c3fd8079,
        type: 3}
      propertyPath: m_LocalRotation.x
      value: 0
      objectReference: {fileID: 0}
    - target: {fileID: 3467459017577468360, guid: a21381521992ece4a9db8e22c3fd8079,
        type: 3}
      propertyPath: m_LocalRotation.y
      value: 0
      objectReference: {fileID: 0}
    - target: {fileID: 3467459017577468360, guid: a21381521992ece4a9db8e22c3fd8079,
        type: 3}
      propertyPath: m_LocalRotation.z
      value: -0.6825473
      objectReference: {fileID: 0}
    - target: {fileID: 3467459017577468360, guid: a21381521992ece4a9db8e22c3fd8079,
        type: 3}
      propertyPath: m_LocalRotation.w
      value: 0.7308415
      objectReference: {fileID: 0}
    - target: {fileID: 3467459017577468360, guid: a21381521992ece4a9db8e22c3fd8079,
        type: 3}
      propertyPath: m_LocalEulerAnglesHint.z
      value: 0
      objectReference: {fileID: 0}
    - target: {fileID: 3467459017606791526, guid: a21381521992ece4a9db8e22c3fd8079,
        type: 3}
      propertyPath: m_LocalRotation.z
      value: 0.18164198
      objectReference: {fileID: 0}
    - target: {fileID: 3467459017606791526, guid: a21381521992ece4a9db8e22c3fd8079,
        type: 3}
      propertyPath: m_LocalRotation.w
      value: 0.9833647
      objectReference: {fileID: 0}
    - target: {fileID: 3467459017606791526, guid: a21381521992ece4a9db8e22c3fd8079,
        type: 3}
      propertyPath: m_LocalEulerAnglesHint.z
      value: 20.931002
      objectReference: {fileID: 0}
    - target: {fileID: 3467459017699745297, guid: a21381521992ece4a9db8e22c3fd8079,
        type: 3}
      propertyPath: m_LocalPosition.x
      value: -0.6148092
      objectReference: {fileID: 0}
    - target: {fileID: 3467459017699745297, guid: a21381521992ece4a9db8e22c3fd8079,
        type: 3}
      propertyPath: m_LocalPosition.y
      value: -4.237809
      objectReference: {fileID: 0}
    - target: {fileID: 3467459017763124925, guid: a21381521992ece4a9db8e22c3fd8079,
        type: 3}
      propertyPath: m_LocalRotation.z
      value: 0.14409815
      objectReference: {fileID: 0}
    - target: {fileID: 3467459017763124925, guid: a21381521992ece4a9db8e22c3fd8079,
        type: 3}
      propertyPath: m_LocalRotation.w
      value: 0.9895634
      objectReference: {fileID: 0}
    - target: {fileID: 3467459017763124925, guid: a21381521992ece4a9db8e22c3fd8079,
        type: 3}
      propertyPath: m_LocalEulerAnglesHint.z
      value: 16.570002
      objectReference: {fileID: 0}
    - target: {fileID: 3467459017844876379, guid: a21381521992ece4a9db8e22c3fd8079,
        type: 3}
      propertyPath: m_LocalRotation.z
      value: -0.79141676
      objectReference: {fileID: 0}
    - target: {fileID: 3467459017844876379, guid: a21381521992ece4a9db8e22c3fd8079,
        type: 3}
      propertyPath: m_LocalRotation.w
      value: 0.611277
      objectReference: {fileID: 0}
    - target: {fileID: 3467459017844876379, guid: a21381521992ece4a9db8e22c3fd8079,
        type: 3}
      propertyPath: m_LocalPosition.x
      value: 0.46924078
      objectReference: {fileID: 0}
    - target: {fileID: 3467459017844876379, guid: a21381521992ece4a9db8e22c3fd8079,
        type: 3}
      propertyPath: m_LocalPosition.y
      value: -3.160216
      objectReference: {fileID: 0}
    m_RemovedComponents: []
  m_SourcePrefab: {fileID: 100100000, guid: a21381521992ece4a9db8e22c3fd8079, type: 3}
