%YAML 1.1
%TAG !u! tag:unity3d.com,2011:
--- !u!114 &11400000
MonoBehaviour:
  m_ObjectHideFlags: 0
  m_CorrespondingSourceObject: {fileID: 0}
  m_PrefabInstance: {fileID: 0}
  m_PrefabAsset: {fileID: 0}
  m_GameObject: {fileID: 0}
  m_Enabled: 1
  m_EditorHideFlags: 0
  m_Script: {fileID: 11500000, guid: 93fff627c824ead41b7f21c74d201720, type: 3}
  m_Name: Monster3
  m_EditorClassIdentifier: 
  monsterPrefab: {fileID: 3397852477257855773, guid: 1faed775027a4784f999df59c0e0f88a,
    type: 3}
  StartPointsPrefab: {fileID: 2264672594760921232, guid: 816fc3bd3c9af0c4f93f72e7f125661f,
    type: 3}
  StayPointsPrefab: {fileID: 6654982346147205213, guid: 31b05b587e3e7ab4a90634731c6b626c,
    type: 3}
  timeBetweenSpawns: 0.2
  spawnRandomFactor: 0.3
  numberOfMonsters: 3
  moveSpeed: 5
  stepsCount: 2
